@startuml

title __Design de la couche transverse/technique de sérialisation__\n

  namespace fr.cnam.foad.nfa035.badges.wallet.fileutils.streaming {
    namespace serializer {
      namespace impl {
        class fr.cnam.foad.nfa035.badges.wallet.fileutils.streaming.serializer.impl.ImageDeserializerBase64DatabaseImpl {
            - sourceOutputStream : OutputStream
            + ImageDeserializerBase64DatabaseImpl()
            + deserialize()
            + getDeserializingStream()
            + getSourceOutputStream()
            + setSourceOutputStream()
        }
      }
    }
  }
  

  namespace fr.cnam.foad.nfa035.badges.wallet.fileutils.streaming {
    namespace serializer {
      namespace impl {
        class fr.cnam.foad.nfa035.badges.wallet.fileutils.streaming.serializer.impl.ImageDeserializerBase64StreamingImpl {
            + ImageDeserializerBase64StreamingImpl()
            + getDeserializingStream()
        }
      }
    }
  }


  namespace fr.cnam.foad.nfa035.badges.wallet.fileutils.streaming {
    namespace serializer {
      namespace impl {
        class fr.cnam.foad.nfa035.badges.wallet.fileutils.streaming.serializer.impl.ImageSerializerBase64DatabaseImpl {
            + getSerializingStream()
            + getSourceInputStream()
            + serialize()
        }
      }
    }
  }
  

  namespace fr.cnam.foad.nfa035.badges.wallet.fileutils.streaming {
    namespace serializer {
      namespace impl {
        class fr.cnam.foad.nfa035.badges.wallet.fileutils.streaming.serializer.impl.ImageSerializerBase64StreamingImpl {
            + getSerializingStream()
            + getSourceInputStream()
        }
      }
    }
  }
  

  fr.cnam.foad.nfa035.badges.wallet.fileutils.streaming.serializer.impl.ImageDeserializerBase64DatabaseImpl .up.|> fr.cnam.foad.nfa035.badges.wallet.fileutils.streaming.serializer.DatabaseDeserializer
  fr.cnam.foad.nfa035.badges.wallet.fileutils.streaming.serializer.impl.ImageDeserializerBase64StreamingImpl -up-|> fr.cnam.foad.nfa035.badges.wallet.fileutils.streaming.serializer.AbstractStreamingImageDeserializer
  fr.cnam.foad.nfa035.badges.wallet.fileutils.streaming.serializer.impl.ImageSerializerBase64DatabaseImpl -up-|> fr.cnam.foad.nfa035.badges.wallet.fileutils.streaming.serializer.AbstractStreamingImageSerializer
  fr.cnam.foad.nfa035.badges.wallet.fileutils.streaming.serializer.impl.ImageSerializerBase64StreamingImpl -up-|> fr.cnam.foad.nfa035.badges.wallet.fileutils.streaming.serializer.AbstractStreamingImageSerializer

  fr.cnam.foad.nfa035.badges.wallet.fileutils.streaming.serializer.DatabaseDeserializer -up-|> fr.cnam.foad.nfa035.badges.wallet.fileutils.streaming.serializer.BadgeDeserializer
  fr.cnam.foad.nfa035.badges.wallet.fileutils.streaming.serializer.ImageStreamingDeserializer -up-|> fr.cnam.foad.nfa035.badges.wallet.fileutils.streaming.serializer.BadgeDeserializer
  fr.cnam.foad.nfa035.badges.wallet.fileutils.streaming.serializer.AbstractStreamingImageDeserializer .up.|> fr.cnam.foad.nfa035.badges.wallet.fileutils.streaming.serializer.ImageStreamingDeserializer
  fr.cnam.foad.nfa035.badges.wallet.fileutils.streaming.serializer.AbstractStreamingImageSerializer .up.|> fr.cnam.foad.nfa035.badges.wallet.fileutils.streaming.serializer.ImageStreamingSerializer

 namespace fr.cnam.foad.nfa035.badges.wallet.fileutils.streaming {
    namespace serializer {
      abstract class fr.cnam.foad.nfa035.badges.wallet.fileutils.streaming.serializer.AbstractStreamingImageDeserializer {
          - sourceOutputStream : OutputStream
          + deserialize()
          + getSourceOutputStream()
          + setSourceOutputStream()
      }
    }
  }


  namespace fr.cnam.foad.nfa035.badges.wallet.fileutils.streaming {
    namespace serializer {
      abstract class fr.cnam.foad.nfa035.badges.wallet.fileutils.streaming.serializer.AbstractStreamingImageSerializer {
          + serialize()
      }
    }
  }


  namespace fr.cnam.foad.nfa035.badges.wallet.fileutils.streaming {
    namespace serializer {
      interface fr.cnam.foad.nfa035.badges.wallet.fileutils.streaming.serializer.BadgeDeserializer {
          {abstract} + deserialize()
          {abstract} + getSourceOutputStream()
          {abstract} + setSourceOutputStream()
      }
    }
  }


  namespace fr.cnam.foad.nfa035.badges.wallet.fileutils.streaming {
    namespace serializer {
      interface fr.cnam.foad.nfa035.badges.wallet.fileutils.streaming.serializer.DatabaseDeserializer {
          {abstract} + getDeserializingStream()
      }
    }
  }


  namespace fr.cnam.foad.nfa035.badges.wallet.fileutils.streaming {
    namespace serializer {
      interface fr.cnam.foad.nfa035.badges.wallet.fileutils.streaming.serializer.ImageStreamingDeserializer {
          {abstract} + getDeserializingStream()
      }
    }
  }


  namespace fr.cnam.foad.nfa035.badges.wallet.fileutils.streaming {
    namespace serializer {
      interface fr.cnam.foad.nfa035.badges.wallet.fileutils.streaming.serializer.ImageStreamingSerializer {
          {abstract} + getSerializingStream()
          {abstract} + getSourceInputStream()
          {abstract} + serialize()
      }
    }
  }

right footer


PlantUML diagram generated by SketchIt! (https://bitbucket.org/pmesmeur/sketch.it)
For more information about this tool, please contact philippe.mesmeur@gmail.com
endfooter

@enduml
